…
It's worth noting that our other sections (in this case, just `drug`) can still be plotted too:

``` r
gp_plot(with_conc, drug)
```

<img src="index.markdown_strict_files/figure-markdown_strict/unnamed-chunk-8-1.png" width="768" />

Tidying these data is simple. Now the plate is ready, it can be served:

``` r
gp_serve(with_conc)
```

    # A tibble: 100 × 5
        .row  .col value drug  conc 
       <int> <int> <int> <fct> <fct>
     1     1     1     1 A     0    
     2     1     6    51 B     0    
     3     6     1     6 C     0    
     4     6     6    56 D     0    
     5     2     1     2 A     0    
     6     2     6    52 B     0    
     7     7     1     7 C     0    
     8     7     6    57 D     0    
     9     3     1     3 A     0    
    10     3     6    53 B     0    
    # ℹ 90 more rows
…
