…
# Details

Imagine you are trying to train cats to get rid of mice in your house, but they are not good at it. You decide to show them an instructional video called 'Mice are Quite Bad, Actually' and measure their feelings on mice both before and after the movie, on a scale of 1-100 (continuous, not integer. I did this so there would be a very slim chance of there being ties, which is a whole other can of worms).

``` r
library(dplyr)
library(ggplot2)
library(tidyr)
library(ggsci)
library(bladdr)
```

Here's what we're going to use for our cat data:

    # A tibble: 60 × 3
       rating seen_film   cat
        <dbl> <chr>     <int>
     1   66.8 unwatched     1
     2   29.0 watched       1
     3   94.9 unwatched     2
     4   17.0 watched       2
     5   59.6 unwatched     3
     6   50.7 watched       3
     7   57.4 unwatched     4
     8   58.2 watched       4
     9   66.6 unwatched     5
    10   37.4 watched       5
    # ℹ 50 more rows
…
Let's use a robust test that doesn't assume that the distributions are normal. How does it work? Through the magic of *ranking*.

# Procedure

First, subtract one value from the other. Let's subtract before from after:

``` r
ratings_with_diff <- ratings |> 
  pivot_wider(names_from = seen_film, values_from = rating) |> 
  mutate(diff = watched-unwatched)
ratings_with_diff
```

    # A tibble: 30 × 4
         cat unwatched watched    diff
       <int>     <dbl>   <dbl>   <dbl>
     1     1      66.8    29.0 -37.8  
     2     2      94.9    17.0 -77.9  
     3     3      59.6    50.7  -8.92 
     4     4      57.4    58.2   0.711
     5     5      66.6    37.4 -29.2  
     6     6      58.0    32.3 -25.6  
     7     7      59.4    51.0  -8.41 
     8     8      74.0    16.8 -57.2  
     9     9      33.2    48.8  15.6  
    10    10      60.8    65.1   4.23 
    # ℹ 20 more rows
…
